tidyverse_workshop_summer2024 - Data Wrangling with R
…
Now,that the tidyverseis loaded, we can use it to import some data into our RStudio session. We are using a function from the readr package called read_csv(). This function takes as an argument the path to where the file is located. Let’s start by reading in the 2008 beneficiary summary file.

read_csv("data/DE1_0_2008_Beneficiary_Summary_File_Sample_1.csv")

Rows: 116352 Columns: 32
── Column specification ────────────────────────────────────────────────────────
Delimiter: ","
chr  (5): DESYNPUF_ID, BENE_ESRD_IND, SP_STATE_CODE, BENE_COUNTY_CD, PLAN_CV...
dbl (27): BENE_BIRTH_DT, BENE_DEATH_DT, BENE_SEX_IDENT_CD, BENE_RACE_CD, BEN...

ℹ Use `spec()` to retrieve the full column specification for this data.
ℹ Specify the column types or set `show_col_types = FALSE` to quiet this message.

# A tibble: 116,352 × 32
   DESYNPUF_ID      BENE_BIRTH_DT BENE_DEATH_DT BENE_SEX_IDENT_CD BENE_RACE_CD
   <chr>                    <dbl>         <dbl>             <dbl>        <dbl>
 1 00013D2EFD8E45D1      19230501            NA                 1            1
 2 00016F745862898F      19430101            NA                 1            1
 3 0001FDD721E223DC      19360901            NA                 2            1
 4 00021CA6FF03E670      19410601            NA                 1            5
 5 00024B3D2352D2D0      19360801            NA                 1            1
 6 0002DAE1C81CC70D      19431001            NA                 1            2
 7 0002F28CE057345B      19220701            NA                 1            1
 8 000308435E3E5B76      19350901            NA                 1            1
 9 000345A39D4157C9      19760901            NA                 2            1
10 00036A21B65B0206      19381001            NA                 2            2
# ℹ 116,342 more rows
# ℹ 27 more variables: BENE_ESRD_IND <chr>, SP_STATE_CODE <chr>,
#   BENE_COUNTY_CD <chr>, BENE_HI_CVRAGE_TOT_MONS <dbl>,
#   BENE_SMI_CVRAGE_TOT_MONS <dbl>, BENE_HMO_CVRAGE_TOT_MONS <dbl>,
#   PLAN_CVRG_MOS_NUM <chr>, SP_ALZHDMTA <dbl>, SP_CHF <dbl>,
#   SP_CHRNKIDN <dbl>, SP_CNCR <dbl>, SP_COPD <dbl>, SP_DEPRESSN <dbl>,
#   SP_DIABETES <dbl>, SP_ISCHMCHT <dbl>, SP_OSTEOPRS <dbl>, SP_RA_OA <dbl>, …
…
