CDABS Data Wrangling and Visualization in R - Data Visualization with ggplot2
…
As we’ll see later in this lesson, mapping a variable to an aesthetic will be especially helpful when we have a third variable to display.

Note

When you map an aesthetic with aes() in the ggplot() function it is inherited by all subsequent layers. When you map in a geom_*() function it is applied only to that layer.

Now let’s start using ggplot2 to help us answer our research question - how did the introduction of the vaccine affect measles rates in the country? We’ll do this with a line graph, which is useful for showing change over time.

First, we need to use our **dplyr** skills to summarize the data.

yearly_rates_joined %>% 
  group_by(Year) %>% 
  summarize(TotalCount = sum(TotalCount))

# A tibble: 96 × 2
    Year TotalCount
   <dbl>      <dbl>
 1  1906       2345
 2  1907      40199
 3  1908      54471
 4  1909      49802
 5  1910      86984
 6  1911      59171
 7  1912      64773
 8  1913     111431
 9  1914      56440
10  1915      93579
# ℹ 86 more rows
…
